Account No	IBAN	Account Name	Party Code	Account Type	Preffered Account	Account Currency	Default Currency	Accounting System	Branch Code	Processing Restrictions	Legal Entity Identifier	STATUS	EffectiveFromDate	EffectiveTillDate
0009005828	GB14IRVT70022533114422	BENEFIT PAYMENTS OMNIBUS	UKPARTY	DDA	0	EUR			ESBRANCH			ACTIVE	20160101	
00100495		demo Bank	UKPARTY	DDA	1	EUR			ESBRANCH			ACTIVE	20160101	
0123456789		LOYDS Bank	AUPARTY	NOS	0	EUR			ESBRANCH			ACTIVE	20160101	
0123456790	GB14IRVT70022533114422	LOYDS Bank	UKPARTY	NOS	0	EUR			ESBRANCH			ACTIVE	20160101	
1045610104		STANDARD CHARTERED BANK	AUPARTY	NOS	0	USD			ESBRANCH			ACTIVE	20160101	
1045610107		Duncan Lawrie Bank	USPARTY	DDA	0	USD			ESBRANCH			ACTIVE	20160101	
1045610208	GB14IRVT70022533114422	EthanHunt	ESPARTY	DDA	0	EUR			ESBRANCH			ACTIVE	20160101	
1045640407		STANDARD CHARTERED BANK	AUPARTY	NOS	0	USD			ESBRANCH			ACTIVE	20160101	
11111111	NL55ABPT1112223334	ABC Company Ltd	ESPARTY	DDA	0	GBP			ESBRANCH			ACTIVE	20160101	
111122223		Standard Chartered Bank	AUPARTY	NOS	1	USD			ESBRANCH			ACTIVE	20160101	
117722223		Standard Chartered Bank	AUPARTY	NOS	1	EUR			ESBRANCH			ACTIVE	20160101	
118822224		Standard Chartered Bank	AUPARTY	DDA	1	EUR			ESBRANCH			ACTIVE	20160101	
1234567890		ISO_PAIN_001	ESPARTY	DDA	1	GBP			ESBRANCH			ACTIVE	20160101	
1245154015		ADVANCE ASSET MANAGEMENT LIMITED	AUPARTY	NOS	0	AUD			ESBRANCH			ACTIVE	20160101	
124515408		Metro Bank	ESPARTY	DDA	0	GBP			ESBRANCH			ACTIVE	20160101	
1245451533		CITIEUR	ESPARTY	VOS	0	EUR			ESBRANCH			ACTIVE	20160101	
1622162599		RTPG	USPARTY	VOS	0	USD			ESBRANCH			ACTIVE	20160101	
3045610128		Kevin	USPARTY	DDA	0	USD			ESBRANCH			ACTIVE	20160101	
3216549870		NCB	ESPARTY	VOS	0	SAR			ESBRANCH			ACTIVE	20160101	
3216549871		BOTTOMLINE	USPARTY	VOS	0	USD			ESBRANCH			ACTIVE	20160101	
3216549872		CitiACH	ESPARTY	VOS	0	USD			ESBRANCH			ACTIVE	20160101	
3216549873		WESTPAC	ESPARTY	VOS	0	AUD			ESBRANCH			ACTIVE	20160101	
3216549874		NACHA	ESPARTY	VOS	0	USD			ESBRANCH			ACTIVE	20160101	
3216549893		Secure Trust Bank	ESPARTY	DDA	0	EUR			ESBRANCH			ACTIVE	20160101	
3216549894		Raphaels Bank	ESPARTY	DDA	0	EUR			ESBRANCH			ACTIVE	20160101	
34		RBS	ESPARTY	DDA	0	EUR			ESBRANCH			ACTIVE	20160101	
5045610122	GB83IRVT70022550456101	Daniel Cooper	ESPARTY	DDA	0	USD			ESBRANCH			ACTIVE	20160101	
5045610123		Daniel Cooper	ESPARTY	DDA	0	USD			ESBRANCH			ACTIVE	20160101	
6541237890		TestBank	USPARTY	NOS	0	USD			ESBRANCH			ACTIVE	20160101	
6541237891		ShawbrookBank	ESPARTY	NOS	0	USD			ESBRANCH			ACTIVE	20160101	
7217549974		TESCOBank	ESPARTY	DDA	0	USD			ESBRANCH			ACTIVE	20160101	
8033808020		Julian Hodge Bank	ESPARTY	DDA	0	USD			ESBRANCH			ACTIVE	20160101	
8033820160		Standard Chartered	ESPARTY	DDA	0	USD			ESBRANCH			ACTIVE	20160101	
8033820199		BNYMBTL	ESPARTY	DDA	0	USD			ESBRANCH			ACTIVE	20160101	
8900319011		Barclays	ESPARTY	DDA	0	EUR			ESBRANCH			ACTIVE	20160101	
8900319012		BNYM_ACH	ESPARTY	DDA	0	XCD			ESBRANCH			ACTIVE	20160101	
8900319021		BNYMTWD	ESPARTY	DDA	0	TWD			ESBRANCH			ACTIVE	20160101	
7777730309		CITIBANK N.A.	PARTYA	NOS	0	USD			USBRANCH			ACTIVE	20160101	
7777730307		CITIBANK N.A.	PARTYA	VOS	0	USD			USBRANCH			ACTIVE	20160101	
100045678		demo	AUPARTY	DDA	1	USD			ESBRANCH	STOP DEBIT		ACTIVE	20160101	
5556668400		"HSBC, London"	9565549876	NOS	1	GBP	GBP	MMD				ACTIVE	20160101	
9005828		BENEFIT PAYMENTS OMNIBUS	5371302532	DDA	1	USD	USD	MMD				ACTIVE	20160101	
8010020199		"Kellogs, USA"	4382562348	DDA	1	USD	USD	MMD				ACTIVE	20160101	
4545450011		Westpac- AUD settlement account	9000001234	NOS	1	AUD	AUD	MMD				ACTIVE	20160101	
4343430022		Westpac - NZD settlement account	9000001234	NOS	1	NZD	NZD	MMD				ACTIVE	20160101	
1222222222		BNYM - ACH Funding account - GMP	7765569998	NOS	0	USD	USD	MMD				ACTIVE	20160101	
